<define-tag pagetitle>DLA-2919-1 python2.7</define-tag>
<define-tag report_date>2022-02-12</define-tag>
<define-tag secrefs>CVE-2021-3177 CVE-2021-4189</define-tag>
<define-tag packages>python2.7</define-tag>
<define-tag isvulnerable>yes</define-tag>
<define-tag fixed>yes</define-tag>
<define-tag fixed-section>no</define-tag>

#use wml::debian::security

