<define-tag pagetitle>DSA-4897-1 thunderbird</define-tag>
<define-tag report_date>2021-4-22</define-tag>
<define-tag secrefs>CVE-2021-23961 CVE-2021-23991 CVE-2021-23992 CVE-2021-23993 CVE-2021-23994 CVE-2021-23995 CVE-2021-23998 CVE-2021-23999 CVE-2021-24002 CVE-2021-29945 CVE-2021-29946 CVE-2021-29948 CVE-2021-29949</define-tag>
<define-tag packages>thunderbird</define-tag>
<define-tag isvulnerable>yes</define-tag>
<define-tag fixed>yes</define-tag>
<define-tag fixed-section>no</define-tag>

#use wml::debian::security



</dl>
