<define-tag pagetitle>DLA-2524-1 spice-vdagent</define-tag>
<define-tag report_date>2021-01-13</define-tag>
<define-tag secrefs>CVE-2017-15108 CVE-2020-25650 CVE-2020-25651 CVE-2020-25652 CVE-2020-25653 Bug#883238 Bug#973769</define-tag>
<define-tag packages>spice-vdagent</define-tag>
<define-tag isvulnerable>yes</define-tag>
<define-tag fixed>yes</define-tag>
<define-tag fixed-section>no</define-tag>

#use wml::debian::security

