<define-tag pagetitle>DLA-2254-1 alpine</define-tag>
<define-tag report_date>2020-06-25</define-tag>
<define-tag secrefs>CVE-2020-14929 Bug#963179</define-tag>
<define-tag packages>alpine</define-tag>
<define-tag isvulnerable>yes</define-tag>
<define-tag fixed>yes</define-tag>
<define-tag fixed-section>no</define-tag>

#use wml::debian::security

