<define-tag pagetitle>DLA-2401-1 sympa</define-tag>
<define-tag report_date>2020-10-07</define-tag>
<define-tag secrefs>CVE-2020-10936 Bug#961491</define-tag>
<define-tag packages>sympa</define-tag>
<define-tag isvulnerable>yes</define-tag>
<define-tag fixed>yes</define-tag>
<define-tag fixed-section>no</define-tag>

#use wml::debian::security

