<define-tag pagetitle>DSA-4370-1 drupal7</define-tag>
<define-tag report_date>2019-1-17</define-tag>
<define-tag secrefs>CVE-2019-6338 CVE-2019-6339</define-tag>
<define-tag packages>drupal7</define-tag>
<define-tag isvulnerable>yes</define-tag>
<define-tag fixed>yes</define-tag>
<define-tag fixed-section>no</define-tag>

#use wml::debian::security



</dl>
