<define-tag pagetitle>DLA-1704-1 nss</define-tag>
<define-tag report_date>2019-03-04</define-tag>
<define-tag secrefs>CVE-2018-12404 CVE-2018-18508 Bug#921614</define-tag>
<define-tag packages>nss</define-tag>
<define-tag isvulnerable>yes</define-tag>
<define-tag fixed>yes</define-tag>
<define-tag fixed-section>no</define-tag>

#use wml::debian::security

